…
\`\`\`{r Sys.setenv(dbhapi_sso_id = “your_sso_id”)
Sys.setenv(dbhapi_sso_secret = “your_sso_secret”)


    ## Example

    DBH-API contents are in table


    ``` r
    library(rdbhapi) 
    dbh_data(1)
    #> # A tibble: 110 × 6
    #>    Emne                `Tabell id` Tabellnavn  Gdpr  `Bulk tabell` Variabelliste
    #>    <chr>               <chr>       <chr>       <chr> <chr>         <chr>        
    #>  1 Ikke tilordnet emne 1           API innhold 0     1             Emne,Tabell …
    #>  2 Ikke tilordnet emne 2           API metada… 0     1             Tabell id,Ta…
    #>  3 Studentdata         60          Studenter … 1     0             Institusjons…
    #>  4 Studentdata         62          Utveksling… 0     0             Utvekslingsa…
    #>  5 Studentdata         93          Finansieri… 0     0             Finansiering…
    #>  6 Studentdata         98          Kandidater… 0     1             Institusjons…
    #>  7 Doktorgradsdata     100         Samarbeid … 0     1             Årstall,Inst…
    #>  8 Doktorgradsdata     101         Avlagte do… 0     1             Institusjons…
    #>  9 Studentdata         104         Ferdige ka… 1     0             Institusjons…
    #> 10 Studentdata         112         Opptak      1     0             Institusjons…
    #> # ℹ 100 more rows
…
