Interface to 'DBH-API' • rdbhapi
…
Package consists of the following functions

dbh_cache               Cache DBH tables
dbh_clean_cache         Clean DBH cache
dbh_data                Get data from API as R dataframe
dbh_metadata            Get metadata for DBH datasets
dbh_toc                 Table of contents for DBH-API

Find data

DBH-API contents are in table

library(rdbhapi)
dbh_data(1)
#> # A tibble: 109 x 6
#>    Emne    `Tabell id` Tabellnavn        Gdpr  `Bulk tabell` Variabelliste      
#>    <chr>   <chr>       <chr>             <chr> <chr>         <chr>              
#>  1 Ikke t~ 1           API innhold       false true          Emne,Tabell id,Tab~
#>  2 Ikke t~ 2           API metadata      false true          Tabell id,Tabellna~
#>  3 Studen~ 60          Studenter fordel~ true  false         Institusjonskode,A~
#>  4 Studen~ 62          Utvekslingsavtal~ false false         Utvekslingsavtale,~
#>  5 Studen~ 66          Desentralisering~ true  false         Årstall,Institusjo~
#>  6 Studen~ 88          Etterutdanning    true  false         Institusjonskode,A~
#>  7 Studen~ 93          Finansieringskil~ false false         Finansieringskilde~
#>  8 Studen~ 98          Kandidater med f~ false true          Institusjonskode,Å~
#>  9 Doktor~ 100         Samarbeid om dok~ false true          Årstall,Institusjo~
#> 10 Doktor~ 101         Avlagte doktorgr~ false true          Institusjonskode,A~
#> # ... with 99 more rows
…
